…
Let’s simulate a lot a lot Let’s start w a for-loop

``` r
output = vector("list", length = 100)

for (i in 1:100) {
  output[[i]]  = sim_mean_sd(samp_size = 30)
}


bind_rows(output)
```

    ## # A tibble: 100 x 2
    ##     mean    sd
    ##    <dbl> <dbl>
    ##  1  3.87  3.79
    ##  2  3.00  4.16
    ##  3  2.27  4.06
    ##  4  3.94  3.63
    ##  5  1.80  4.67
    ##  6  3.08  4.21
    ##  7  3.15  5.42
    ##  8  2.68  3.70
    ##  9  2.47  3.64
    ## 10  3.31  4.29
    ## # … with 90 more rows
…
